{
	"id": "JX.519",
	"name": "Retkilomake",
	"category": "MHL.categoryGeneric",
	"language": "en",
	"title": "Field trip report",
	"description": "With this form you can report all observations and data from possible collection samples from a field trip which lasts one or several days.",
	"shortDescription": "Report all your observations and collection samples from a field trip.",
	"instructions": {
		"fi": "https://laji.fi/about/1107",
		"en": "https://laji.fi/about/1107",
		"sv": "https://laji.fi/about/1107"
	},
	"uiSchema": {
		"ui:shortcuts": {
			"alt": {
				"fn": "help",
				"delay": 1
			},
			"alt+F5": {
				"fn": "revalidate"
			},
			"Enter": {
				"fn": "navigate"
			},
			"shift+Enter": {
				"fn": "navigate",
				"reverse": true
			},
			"ctrl+Enter": {
				"fn": "textareaRowInsert"
			},
			"alt+ ": {
				"fn": "navigate"
			},
			"alt+shift+ ": {
				"fn": "navigate",
				"reverse": true
			},
			"alt+PageDown": {
				"fn": "navigateArray",
				"target": "root_gatherings",
				"targetLabel": "gathering"
			},
			"alt+PageUp": {
				"fn": "navigateArray",
				"reverse": true,
				"target": "root_gatherings",
				"targetLabel": "gathering"
			},
			"alt+ArrowRight": {
				"fn": "navigateArray",
				"target": "root_gatherings",
				"targetLabel": "gathering"
			},
			"alt+ArrowLeft": {
				"fn": "navigateArray",
				"reverse": true,
				"target": "root_gatherings",
				"targetLabel": "gathering"
			},
			"alt+ArrowUp": {
				"fn": "navigateArray",
				"reverse": true,
				"target": "root_gatherings_%{context[\"root_gatherings.activeIdx\"]}_units",
				"targetLabel": "unit"
			},
			"alt+ArrowDown": {
				"fn": "navigateArray",
				"target": "root_gatherings_%{context[\"root_gatherings.activeIdx\"]}_units",
				"targetLabel": "unit"
			},
			"alt+h": {
				"fn": "navigateArray",
				"reverse": true,
				"target": "root_gatherings",
				"targetLabel": "gathering"
			},
			"alt+j": {
				"fn": "navigateArray",
				"target": "root_gatherings_%{context[\"root_gatherings.activeIdx\"]}_units",
				"targetLabel": "unit"
			},
			"alt+k": {
				"fn": "navigateArray",
				"reverse": true,
				"target": "root_gatherings_%{context[\"root_gatherings.activeIdx\"]}_units",
				"targetLabel": "unit"
			},
			"alt+l": {
				"fn": "navigateArray",
				"target": "root_gatherings",
				"targetLabel": "gathering"
			},
			"alt+n": {
				"fn": "navigateArray"
			},
			"alt+p": {
				"fn": "navigateArray",
				"reverse": true
			},
			"alt+Insert": {
				"fn": "insert"
			},
			"alt+i": {
				"fn": "insert"
			},
			"alt+Delete": {
				"fn": "delete"
			},
			"alt+d": {
				"fn": "delete"
			},
			"alt+u": {
				"fn": "insert",
				"target": "root_gatherings_%{context[\"root_gatherings.activeIdx\"]}_units",
				"targetLabel": "@unitShortcutInsertHelp"
			},
			"alt+g": {
				"fn": "insert",
				"target": "root_gatherings",
				"targetLabel": "@gatheringShortcutInsertHelp"
			},
			"alt+t": {
				"fn": "autosuggestToggle"
			}
		},
		"ui:order": [
			"gatheringEvent",
			"gatherings"
		],
		"ui:field": "InjectField",
		"ui:options": {
			"injections": {
				"fields": [
					"editors",
					"secureLevel",
					"keywords"
				],
				"target": "gatheringEvent"
			}
		},
		"gatheringEvent": {
			"ui:field": "NestField",
			"classNames": "well well-sm",
			"ui:order": [
				"*",
				"legPublic",
				"secureLevel",
				"eventTime",
				"keywords"
			],
			"ui:options": {
				"nests": {
					"legEditor": {
						"fields": [
							"leg",
							"editors"
						],
						"rootUiSchema": {
							"ui:field": "NestField",
							"ui:options": {
								"nests": {
									"_legEditor": {
										"fields": [
											"leg",
											"editors"
										],
										"title": "",
										"rootUiSchema": {
											"ui:functions": [
												{
													"ui:field": "DependentBooleanField",
													"ui:options": {
														"booleanField": "editors",
														"booleanDefiner": "leg"
													}
												},
												{
													"ui:field": "ArrayCombinerField"
												}
											],
											"ui:field": "TableField",
											"ui:options": {
												"specialRules": "legEditors",
												"ui:buttonsDesktopLayout": true
											},
											"items": {
												"ui:functions": {
													"ui:field": "ContextInjectionField",
													"ui:options": {
														"injections": {
															"/ui:options/rules/0/regexp": "/creator"
														}
													}
												},
												"ui:field": "DependentDisableField",
												"ui:options": {
													"rules": [
														{
															"disableDefiner": "leg",
															"disableField": "editors",
															"regexp": "creator is injected here",
															"inlineHelp": "You must be an editor.",
															"disabledValueToDisplay": true
														},
														{
															"disableDefiner": "leg",
															"disableField": "editors",
															"regexp": "^((?!(MA\\.\\d)).)*$"
														}
													]
												}
											}
										}
									},
									"legEditorSizeFixer": {
										"fields": [
											"_legEditor"
										],
										"title": "",
										"rootUiSchema": {
											"ui:grid": {
												"lg": 6,
												"md": 6,
												"sm": 9,
												"xs": 12
											}
										}
									}
								}
							}
						}
					},
					"eventTime": {
						"fields": [
							"dateBegin",
							"dateEnd"
						],
						"title": "",
						"rootUiSchema": {
							"ui:grid": {
								"lg": {
									"dateBegin": 3,
									"dateEnd": 2
								},
								"md": {
									"dateBegin": 4,
									"dateEnd": 2
								},
								"sm": {
									"dateBegin": 5,
									"dateEnd": 3
								},
								"xs": 12
							}
						}
					}
				}
			},
			"leg": {
				"ui:widget": "AutosuggestWidget",
				"ui:help": "@legHelp",
				"ui:options": {
					"autosuggestField": "friends",
					"allowNonsuggestedValue": true,
					"suggestionReceive": "key",
					"preventTypingPattern": "^MA\\.\\d+$"
				}
			},
			"dateBegin": {
				"ui:widget": "DateTimeWidget",
				"ui:options": {
					"showButtons": true
				}
			},
			"dateEnd": {
				"ui:widget": "DateTimeWidget"
			},
			"legPublic": {
				"ui:options": {
					"allowUndefined": false
				},
				"ui:help": "You can hide the observer names if needed by selecting \"No\". The observer names are always available to authoritatives."
			}
		},
		"editors": {
			"ui:help": "If you report an identified user as an observer and the user has added you as a friend, you can give the user rights to edit this field trip report. Additionally observations from this field trip report are shown to this particular user among his/her own observations.",
			"ui:options": {
				"allowUndefined": false
			}
		},
		"secureLevel": {
			"ui:widget": "AnyToBooleanWidget",
			"ui:help": "By selecting \"No\" the observations geographic information will be coarsened to a 10 x 10 km² square in public material. The geographic information will always be available to authoritatives in detail. Images attached to coarsened observations are public.",
			"ui:options": {
				"trueValue": "MX.secureLevelNone",
				"falseValue": "MX.secureLevelKM10",
				"allowUndefined": false
			}
		},
		"keywords": {
			"ui:field": "TagArrayField"
		},
		"gatherings": {
			"ui:functions": [
				{
					"ui:field": "NamedPlaceChooserField"
				},
				{
					"ui:field": "ContextInjectionField",
					"ui:options": {
						"injections": {
							"/ui:options/activeIdx": "/activeGatheringIdx"
						}
					}
				}
			],
			"ui:field": "MapArrayField",
			"ui:settings": [
				"/mapOptions/tileLayerName",
				"/mapOptions/overlayNames",
				"/mapOptions/tileLayerOpacity"
			],
			"ui:options": {
				"mapOptions": {
					"controls": {
						"draw": {
							"clear": true,
							"delete": true,
							"reverse": true,
							"undo": false,
							"redo": false
						}
					}
				},
				"geometryField": "geometry",
				"geometryMapper": "units",
				"mapSizes": {
					"lg": 8,
					"md": 6,
					"sm": 6,
					"xs": 12
				},
				"buttons": [
					{
						"fn": "add",
						"label": "Add a place"
					}
				],
				"popupFields": [
					{
						"mapper": "unitTaxon"
					},
					{
						"field": "sex"
					},
					{
						"field": "notes"
					}
				],
				"belowFields": [
					"units"
				],
				"belowUiSchemaRoot": {
					"ui:field": "SingleItemArrayField",
					"ui:options": {
						"titleFormat": "Places %{idx} observations",
						"titleClassName": "lg"
					}
				},
				"inlineUiSchemaRoot": {
					"ui:field": "AccordionArrayField",
					"ui:options": {
						"headerFormatters": [
							"units",
							"namedPlace"
						],
						"popupFields": [
							{
								"field": "units",
								"mapper": "units",
								"label": "Observations"
							},
							{
								"field": "localityDescription"
							}
						],
						"titleFormat": "%{Title} %{idx}",
						"confirmDelete": true
					}
				},
				"propsToPassToInlineSchema": [
					"formData"
				],
				"minHeight": 435,
				"resizeTimeout": 210,
				"renderButtonsBelow": true,
				"buttonsTitle": "Add a new place",
				"emptyHelp": "Start reporting observations by drawing the observation site on the map"
			},
			"items": {
				"ui:functions": [
					{
						"ui:field": "GeocoderField",
						"ui:options": {
							"updateOnlyEmpty": true,
							"button": true
						}
					},
					{
						"ui:field": "NamedPlaceSaverField"
					}
				],
				"ui:field": "NestField",
				"ui:options": {
					"nests": {
						"eventTime": {
							"title": "",
							"fields": [
								"dateBegin",
								"dateEnd"
							],
							"rootUiSchema": {
								"ui:grid": {
									"lg": {
										"dateBegin": 6,
										"dateEnd": 3
									},
									"md": {
										"dateBegin": 7,
										"dateEnd": 4
									},
									"sm": 12,
									"xs": 12
								}
							}
						},
						"placeWrapper": {
							"title": "Information about the observation site",
							"fields": [
								"country",
								"administrativeProvince",
								"biologicalProvince",
								"municipality",
								"locality",
								"localityDescription",
								"coordinateRadius",
								"alt",
								"images",
								"weather",
								"eventTime",
								"notes",
								"geometry",
								"namedPlaceID",
								"samplingMethod",
								"samplingMethodNotes",
								"habitat",
								"habitatDescription",
								"observationDays",
								"observationMinutes",
								"trapCount",
								"taxonCensus"
							],
							"rootUiSchema": {
								"ui:field": "ScopeField",
								"ui:settings": [
									"%additionalFields/scopeField_gatherings"
								],
								"ui:options": {
									"includeAdditionalFieldsChooserButton": true,
									"additionalsPersistenceKey": "gatherings",
									"fields": [
										"locality",
										"localityDescription",
										"images",
										"weather",
										"notes",
										"namedPlaceID"
									],
									"titles": {
										"eventTime": "Time"
									}
								},
								"ui:order": [
									"country",
									"administrativeProvince",
									"biologicalProvince",
									"municipality",
									"locality",
									"localityDescription",
									"coordinateRadius",
									"alt",
									"images",
									"habitat",
									"habitatDescription",
									"weather",
									"eventTime",
									"notes",
									"geometry",
									"namedPlaceID",
									"samplingMethod",
									"samplingMethodNotes",
									"observationDays",
									"observationMinutes",
									"trapCount",
									"taxonCensus"
								]
							}
						}
					},
					"buttonsNest": "placeWrapper"
				},
				"ui:order": [
					"*",
					"units"
				],
				"geometry": {
					"ui:field": "HiddenField"
				},
				"namedPlaceID": {
					"ui:field": "HiddenField"
				},
				"images": {
					"ui:field": "ImageArrayField",
					"ui:options": {
						"capturerVerbatimPath": "/gatheringEvent/leg"
					}
				},
				"dateBegin": {
					"ui:widget": "DateTimeWidget",
					"ui:options": {
						"showButtons": true
					}
				},
				"dateEnd": {
					"ui:widget": "DateTimeWidget"
				},
				"taxonCensus": {
					"items": {
						"censusTaxonID": {
							"ui:widget": "AutosuggestWidget",
							"ui:options": {
								"autosuggestField": "taxon",
								"allowNonsuggestedValue": true,
								"suggestionReceive": "key"
							}
						}
					}
				},
				"municipality": {
					"ui:functions": [
						{
							"ui:field": "StringToArrayField",
							"ui:options": {
								"delimiter": ", "
							}
						},
						{
							"ui:field": "TagArrayField"
						}
					]
				},
				"biologicalProvince": {
					"ui:functions": [
						{
							"ui:field": "StringToArrayField",
							"ui:options": {
								"delimiter": ", "
							}
						},
						{
							"ui:field": "TagArrayField"
						}
					]
				},
				"administrativeProvince": {
					"ui:functions": [
						{
							"ui:field": "StringToArrayField",
							"ui:options": {
								"delimiter": ", "
							}
						},
						{
							"ui:field": "TagArrayField"
						}
					]
				},
				"units": {
					"ui:childFunctions": {
						"ui:field": "FlatField",
						"ui:options": {
							"fields": [
								"identifications",
								"unitGathering",
								"unitFact"
							]
						}
					},
					"ui:field": "SingleActiveArrayField",
					"ui:title": "",
					"ui:options": {
						"renderer": "table",
						"normalRenderingTreshold": "sm",
						"confirmDelete": true,
						"buttons": [
							{
								"fn": "add",
								"label": "Add an observation"
							},
							{
								"fn": "copy",
								"label": "Copy the observation",
								"type": "whitelist",
								"filter": [
									"recordBasis",
									"informalTaxonGroups",
									"taxonConfidence",
									"lifeStage",
									"preservation",
									"plantLifeStage",
									"breeding",
									"atlasCode",
									"twitched",
									"nativeStatus",
									"identifications_0_det",
									"identifications_0_detDate",
									"identifications_0_identificationBasis",
									"samplingMethod",
									"unitGathering_habitatIUCN",
									"unitGathering_habitatDescription",
									"unitGathering_dateBegin",
									"unitGathering_dateEnd"
								]
							}
						],
						"formatters": {
							"identifications_0_taxon": {
								"formatter": "unknownTaxon",
								"idField": "unitFact_autocompleteSelectedTaxonID"
							}
						},
						"idToScrollAfterAdd": "root_gatherings_%{context[\"root_gatherings.activeIdx\"]}_units_add",
						"tableActiveItemClassNames": "panel panel-body gray"
					},
					"items": {
						"ui:functions": [
							{
								"ui:field": "AutosuggestField",
								"ui:settings": [
									"%toggled/AUTOSUGGEST_FIELD_TOGGLE_PERSISTENCE_unit",
									"%taxonGroupID/AUTOSUGGEST_FIELD_PERSISTENCE_units_informalTaxonGroup"
								],
								"ui:options": {
									"autosuggestField": "taxon",
									"allowNonsuggestedValue": true,
									"suggestionInputField": "identifications_0_taxon",
									"suggestionValueField": "unitFact_autocompleteSelectedTaxonID",
									"suggestionReceivers": {
										"identifications_0_taxon": "value",
										"informalTaxonGroups": "$taxonGroup",
										"unitFact_autocompleteSelectedTaxonID": "key"
									},
									"inputTransformer": {
										"regexp": "^(.*)\\?$",
										"transformations": {
											"taxonConfidence": "MY.taxonConfidenceUnsure"
										}
									},
									"informalTaxonGroups": "informalTaxonGroups",
									"informalTaxonGroupPersistenceKey": "units_informalTaxonGroup",
									"query": {
										"informalTaxonGroup": {
											"parser": "arrayJoin",
											"field": "informalTaxonGroups"
										}
									},
									"toggleable": {
										"autosuggestField": "unit",
										"query": {
											"includeNonMatching": true,
											"matchType": "exact,partial"
										},
										"selectOnlyOne": true,
										"nonMatchingBeforeUnsuggested": true
									},
									"togglePersistenceKey": "unit",
									"autocopy": {
										"type": "whitelist",
										"filter": [
											"recordBasis",
											"informalTaxonGroups",
											"taxonConfidence",
											"lifeStage",
											"preservation",
											"plantLifeStage",
											"breeding",
											"atlasCode",
											"twitched",
											"nativeStatus",
											"identifications_0_det",
											"identifications_0_detDate",
											"identifications_0_identificationBasis",
											"samplingMethod",
											"unitGathering_habitatIUCN",
											"unitGathering_habitatDescription",
											"unitGathering_dateBegin",
											"unitGathering_dateEnd"
										]
									}
								}
							},
							{
								"ui:field": "AutosuggestField",
								"ui:options": {
									"autosuggestField": "taxon",
									"allowNonsuggestedValue": true,
									"suggestionInputField": "hostInformalNameString",
									"suggestionValueField": "hostID",
									"suggestionReceivers": {
										"hostInformalNameString": "value",
										"hostID": "key"
									}
								}
							},
							{
								"ui:field": "InputTransformerField",
								"ui:options": {
									"rules": [
										{
											"transformations": {
												"recordBasis": "MY.recordBasisHumanObservationPhoto"
											},
											"conditions": {
												"images": {
													"length": 1
												},
												"recordBasis": {
													"regexp": "MY.recordBasisPreservedSpecimen",
													"reverse": true
												}
											}
										}
									]
								}
							}
						],
						"ui:field": "ScopeField",
						"classNames": "well well-sm",
						"ui:settings": [
							"%additionalFields/scopeField_gathering_unit_informalTaxonGroups"
						],
						"ui:order": [
							"identifications",
							"count",
							"notes",
							"informalTaxonGroups",
							"taxonConfidence",
							"recordBasis",
							"*",
							"images"
						],
						"ui:options": {
							"additionalsGroupingPath": "/fieldScopes/informalTaxonGroups",
							"additionalsGroupingOrderer": "informalTaxonGroups",
							"additionalsGroupsTranslator": "taxonGroups",
							"additionalsPersistenceField": "informalTaxonGroups",
							"additionalsPersistenceKey": "gathering_unit_informalTaxonGroups",
							"includeAdditionalFieldsChooserButton": true,
							"glyphFields": [
								{
									"glyph": "camera",
									"show": "images",
									"label": "Add a photo",
									"open": true
								},
								{
									"glyph": "map-marker",
									"fn": "setLocation",
									"label": "Set location"
								}
							],
							"fields": [
								"unitFact_autocompleteSelectedTaxonID",
								"identifications_0_taxon",
								"count",
								"notes",
								"informalTaxonGroups",
								"taxonConfidence",
								"recordBasis"
							],
							"fieldScopes": {
								"informalTaxonGroups": {
									"*": {
										"title": "All",
										"additionalFields": [
											"identifications_0_det",
											"identifications_0_detDate",
											"identifications_0_identificationBasis",
											"sex",
											"unitGathering_dateBegin",
											"unitGathering_dateEnd",
											"unitGathering_habitatIUCN",
											"unitGathering_habitatDescription",
											"preservation",
											"samplingMethod",
											"breeding",
											"maleIndividualCount",
											"femaleIndividualCount",
											"nativeStatus",
											"checklistID"
										]
									},
									"MVL.1": {
										"additionalFields": [
											"atlasCode",
											"movingStatus",
											"twitched"
										]
									},
									"MVL.21": {
										"additionalFields": [
											"plantLifeStage",
											"plantStatusCode"
										]
									},
									"MVL.232": {
										"additionalFields": [
											"lifeStage",
											"hostInformalNameString"
										]
									},
									"MVL.233": {
										"title": "Fungi",
										"additionalFields": [
											"unitGathering_substrate",
											"substrateSpecies",
											"smell",
											"smellNotes",
											"taste",
											"tasteNotes"
										]
									}
								}
							},
							"idToScroll": "root_gatherings_%{context[\"root_gatherings.activeIdx\"]}_units_add"
						},
						"ui:annotations": {
							"container": "modal",
							"adminOnly": true,
							"add": {
								"type": "MAN.typeOpinion",
								"filter": {
									"filterType": "blacklist",
									"filter": [
										"opinion"
									]
								},
								"uiSchema": {
									"annotationClass": {
										"ui:widget": "AnyToBooleanWidget",
										"ui:options": {
											"trueValue": "MAN.annotationClassReliable",
											"falseValue": "MAN.annotationClassUnreliable",
											"allowUndefined": false
										}
									}
								},
								"formData": {
									"annotationClass": "MAN.annotationClassReliable"
								}
							}
						},
						"ui:grid": {
							"lg": {
								"identifications_0_taxon": 3,
								"count": 1,
								"notes": 2,
								"taxonConfidence": 2,
								"recordBasis": 2,
								"identifications_0_identificationBasis": 2,
								"unitGathering_dateBegin": 3,
								"unitGathering_dateEnd": 3,
								"*": 2
							},
							"md": {
								"identifications_0_taxon": 3,
								"count": 1,
								"notes": 3,
								"taxonConfidence": 2,
								"recordBasis": 2,
								"identifications_0_identificationBasis": 2,
								"unitGathering_dateBegin": 3,
								"unitGathering_dateEnd": 3,
								"identifications_0_detDate": 3,
								"*": 2
							},
							"sm": {
								"identifications_0_taxon": 4,
								"count": 2,
								"identifications_0_identificationBasis": 6,
								"unitGathering_dateBegin": 4,
								"unitGathering_dateEnd": 4,
								"notes": 5,
								"*": 4
							},
							"xs": 12,
							"rows": [
								[
									"identifications_0_taxon",
									"taxonConfidence",
									"recordBasis",
									"count",
									"notes"
								]
							]
						},
						"identifications": {
							"items": {
								"detDate": {
									"ui:widget": "DateWidget"
								}
							}
						},
						"informalTaxonGroups": {
							"ui:field": "HiddenField"
						},
						"images": {
							"ui:field": "ImageArrayField",
							"ui:options": {
								"capturerVerbatimPath": "/gatheringEvent/leg"
							}
						},
						"unitGathering": {
							"geometry": {
								"ui:field": "HiddenField"
							},
							"dateBegin": {
								"ui:widget": "DateTimeWidget"
							},
							"dateEnd": {
								"ui:widget": "DateTimeWidget"
							}
						},
						"recordBasis": {
							"ui:options": {
								"filterType": "whitelist",
								"filter": [
									"",
									"MY.recordBasisHumanObservationPhoto",
									"MY.recordBasisPreservedSpecimen",
									"MY.recordBasisHumanObservationHandled",
									"MY.recordBasisHumanObservation",
									"MY.recordBasisHumanObservationAudio",
									"MY.recordBasisHumanObservationIndirect"
								],
								"order": [
									"",
									"MY.recordBasisHumanObservation",
									"MY.recordBasisHumanObservationPhoto",
									"MY.recordBasisPreservedSpecimen",
									"MY.recordBasisHumanObservationHandled",
									"MY.recordBasisHumanObservationAudio",
									"MY.recordBasisHumanObservationIndirect"
								]
							}
						},
						"substrateSpecies": {
							"ui:widget": "AutosuggestWidget",
							"ui:options": {
								"autosuggestField": "taxon",
								"allowNonsuggestedValue": true,
								"suggestionReceive": "key"
							}
						},
						"unitFact": {
							"autocompleteSelectedTaxonID": {
								"ui:widget": "HiddenWidget"
							}
						},
						"hostID": {
							"ui:widget": "HiddenWidget"
						}
					}
				}
			}
		}
	},
	"extra": {
		"habitat": {
			"altParent": {
				"MY.habitatEnumValue1": [],
				"MY.habitatEnumValue14": [],
				"MY.habitatEnumValue24": [],
				"MY.habitatEnumValue27": [],
				"MY.habitatEnumValue36": [],
				"MY.habitatEnumValue44": [],
				"MY.habitatEnumValue55": [],
				"MY.habitatEnumValue2": [
					"MY.habitatEnumValue1"
				],
				"MY.habitatEnumValue3": [
					"MY.habitatEnumValue2"
				],
				"MY.habitatEnumValue4": [
					"MY.habitatEnumValue2"
				],
				"MY.habitatEnumValue5": [
					"MY.habitatEnumValue2"
				],
				"MY.habitatEnumValue6": [
					"MY.habitatEnumValue2"
				],
				"MY.habitatEnumValue7": [
					"MY.habitatEnumValue1"
				],
				"MY.habitatEnumValue8": [
					"MY.habitatEnumValue7"
				],
				"MY.habitatEnumValue9": [
					"MY.habitatEnumValue7"
				],
				"MY.habitatEnumValue10": [
					"MY.habitatEnumValue7"
				],
				"MY.habitatEnumValue11": [
					"MY.habitatEnumValue7"
				],
				"MY.habitatEnumValue12": [
					"MY.habitatEnumValue7"
				],
				"MY.habitatEnumValue13": [
					"MY.habitatEnumValue1"
				],
				"MY.habitatEnumValue15": [
					"MY.habitatEnumValue14"
				],
				"MY.habitatEnumValue16": [
					"MY.habitatEnumValue15"
				],
				"MY.habitatEnumValue17": [
					"MY.habitatEnumValue15"
				],
				"MY.habitatEnumValue18": [
					"MY.habitatEnumValue15"
				],
				"MY.habitatEnumValue19": [
					"MY.habitatEnumValue14"
				],
				"MY.habitatEnumValue20": [
					"MY.habitatEnumValue19"
				],
				"MY.habitatEnumValue21": [
					"MY.habitatEnumValue19"
				],
				"MY.habitatEnumValue22": [
					"MY.habitatEnumValue19"
				],
				"MY.habitatEnumValue23": [
					"MY.habitatEnumValue19"
				],
				"MY.habitatEnumValue25": [
					"MY.habitatEnumValue24"
				],
				"MY.habitatEnumValue26": [
					"MY.habitatEnumValue24"
				],
				"MY.habitatEnumValue28": [
					"MY.habitatEnumValue27"
				],
				"MY.habitatEnumValue29": [
					"MY.habitatEnumValue27"
				],
				"MY.habitatEnumValue30": [
					"MY.habitatEnumValue27"
				],
				"MY.habitatEnumValue31": [
					"MY.habitatEnumValue27"
				],
				"MY.habitatEnumValue32": [
					"MY.habitatEnumValue27"
				],
				"MY.habitatEnumValue33": [
					"MY.habitatEnumValue27"
				],
				"MY.habitatEnumValue34": [
					"MY.habitatEnumValue27"
				],
				"MY.habitatEnumValue35": [
					"MY.habitatEnumValue27"
				],
				"MY.habitatEnumValue87": [
					"MY.habitatEnumValue36"
				],
				"MY.habitatEnumValue37": [
					"MY.habitatEnumValue87"
				],
				"MY.habitatEnumValue38": [
					"MY.habitatEnumValue87"
				],
				"MY.habitatEnumValue39": [
					"MY.habitatEnumValue87"
				],
				"MY.habitatEnumValue40": [
					"MY.habitatEnumValue87"
				],
				"MY.habitatEnumValue41": [
					"MY.habitatEnumValue36"
				],
				"MY.habitatEnumValue42": [
					"MY.habitatEnumValue36"
				],
				"MY.habitatEnumValue43": [
					"MY.habitatEnumValue36"
				],
				"MY.habitatEnumValue45": [
					"MY.habitatEnumValue44"
				],
				"MY.habitatEnumValue46": [
					"MY.habitatEnumValue44"
				],
				"MY.habitatEnumValue47": [
					"MY.habitatEnumValue44"
				],
				"MY.habitatEnumValue48": [
					"MY.habitatEnumValue44"
				],
				"MY.habitatEnumValue49": [
					"MY.habitatEnumValue44"
				],
				"MY.habitatEnumValue50": [
					"MY.habitatEnumValue44"
				],
				"MY.habitatEnumValue51": [
					"MY.habitatEnumValue44"
				],
				"MY.habitatEnumValue52": [
					"MY.habitatEnumValue44"
				],
				"MY.habitatEnumValue53": [
					"MY.habitatEnumValue44"
				],
				"MY.habitatEnumValue54": [
					"MY.habitatEnumValue44"
				],
				"MY.habitatEnumValue56": [
					"MY.habitatEnumValue55"
				],
				"MY.habitatEnumValue57": [
					"MY.habitatEnumValue56"
				],
				"MY.habitatEnumValue58": [
					"MY.habitatEnumValue56"
				],
				"MY.habitatEnumValue59": [
					"MY.habitatEnumValue56"
				],
				"MY.habitatEnumValue60": [
					"MY.habitatEnumValue56"
				],
				"MY.habitatEnumValue61": [
					"MY.habitatEnumValue56"
				],
				"MY.habitatEnumValue62": [
					"MY.habitatEnumValue56"
				],
				"MY.habitatEnumValue63": [
					"MY.habitatEnumValue56"
				],
				"MY.habitatEnumValue64": [
					"MY.habitatEnumValue55"
				],
				"MY.habitatEnumValue65": [
					"MY.habitatEnumValue55"
				],
				"MY.habitatEnumValue66": [
					"MY.habitatEnumValue55"
				],
				"MY.habitatEnumValue67": [
					"MY.habitatEnumValue66"
				],
				"MY.habitatEnumValue68": [
					"MY.habitatEnumValue66"
				],
				"MY.habitatEnumValue69": [
					"MY.habitatEnumValue66"
				],
				"MY.habitatEnumValue70": [
					"MY.habitatEnumValue66"
				],
				"MY.habitatEnumValue71": [
					"MY.habitatEnumValue55"
				],
				"MY.habitatEnumValue72": [
					"MY.habitatEnumValue71"
				],
				"MY.habitatEnumValue73": [
					"MY.habitatEnumValue71"
				],
				"MY.habitatEnumValue74": [
					"MY.habitatEnumValue71"
				],
				"MY.habitatEnumValue75": [
					"MY.habitatEnumValue71"
				],
				"MY.habitatEnumValue76": [
					"MY.habitatEnumValue71"
				],
				"MY.habitatEnumValue77": [
					"MY.habitatEnumValue71"
				],
				"MY.habitatEnumValue78": [
					"MY.habitatEnumValue71"
				],
				"MY.habitatEnumValue79": [
					"MY.habitatEnumValue55"
				],
				"MY.habitatEnumValue80": [
					"MY.habitatEnumValue79"
				],
				"MY.habitatEnumValue81": [
					"MY.habitatEnumValue79"
				],
				"MY.habitatEnumValue82": [
					"MY.habitatEnumValue79"
				],
				"MY.habitatEnumValue83": [
					"MY.habitatEnumValue79"
				],
				"MY.habitatEnumValue84": [
					"MY.habitatEnumValue79"
				],
				"MY.habitatEnumValue85": [
					"MY.habitatEnumValue79"
				],
				"MY.habitatEnumValue86": [
					"MY.habitatEnumValue79"
				]
			}
		}
	},
	"attributes": {
		"id": "JX.519"
	},
	"schema": {
		"type": "object",
		"properties": {
			"editors": {
				"type": "array",
				"title": "Edit rights",
				"items": {
					"type": "string"
				}
			},
			"secureLevel": {
				"type": "string",
				"title": "The observations geographic information is public in detail",
				"default": "MX.secureLevelNone",
				"enum": [
					"MX.secureLevelNone",
					"MX.secureLevelKM10"
				],
				"enumNames": [
					"None",
					"10 km"
				]
			},
			"gatheringEvent": {
				"type": "object",
				"title": "",
				"properties": {
					"leg": {
						"type": "array",
						"title": "Observers",
						"items": {
							"type": "string"
						}
					},
					"legPublic": {
						"type": "boolean",
						"title": "Observer names are public",
						"default": true
					},
					"dateBegin": {
						"type": "string",
						"title": "Start date",
						"excludeFromCopy": true
					},
					"dateEnd": {
						"type": "string",
						"title": "End date",
						"excludeFromCopy": true
					}
				},
				"required": []
			},
			"keywords": {
				"type": "array",
				"title": "Keywords",
				"items": {
					"type": "string"
				}
			},
			"gatherings": {
				"type": "array",
				"title": "Location",
				"items": {
					"type": "object",
					"properties": {
						"dateBegin": {
							"type": "string",
							"title": "Start date",
							"excludeFromCopy": true
						},
						"dateEnd": {
							"type": "string",
							"title": "End date"
						},
						"namedPlaceID": {
							"type": "string",
							"title": "Named place"
						},
						"geometry": {
							"type": "object",
							"properties": {},
							"title": "Coordinates"
						},
						"coordinateRadius": {
							"type": "string",
							"title": "Coordinate accuracy in meters"
						},
						"alt": {
							"type": "string",
							"title": "Alt in meters"
						},
						"country": {
							"type": "string",
							"title": "Country"
						},
						"administrativeProvince": {
							"type": "string",
							"title": "Administrative province"
						},
						"biologicalProvince": {
							"type": "string",
							"title": "Biogeographical province"
						},
						"municipality": {
							"type": "string",
							"title": "Municipality"
						},
						"locality": {
							"type": "string",
							"title": "Locality names"
						},
						"localityDescription": {
							"type": "string",
							"title": "Locality description"
						},
						"images": {
							"type": "array",
							"title": "Images of the site",
							"excludeFromCopy": true,
							"items": {
								"type": "string"
							}
						},
						"habitat": {
							"type": "array",
							"title": "@biotooppiLabel",
							"uniqueItems": true,
							"items": {
								"type": "string",
								"enum": [
									"",
									"MY.habitatEnumValue1",
									"MY.habitatEnumValue2",
									"MY.habitatEnumValue3",
									"MY.habitatEnumValue4",
									"MY.habitatEnumValue5",
									"MY.habitatEnumValue6",
									"MY.habitatEnumValue7",
									"MY.habitatEnumValue8",
									"MY.habitatEnumValue9",
									"MY.habitatEnumValue10",
									"MY.habitatEnumValue11",
									"MY.habitatEnumValue12",
									"MY.habitatEnumValue13",
									"MY.habitatEnumValue14",
									"MY.habitatEnumValue15",
									"MY.habitatEnumValue16",
									"MY.habitatEnumValue17",
									"MY.habitatEnumValue18",
									"MY.habitatEnumValue19",
									"MY.habitatEnumValue20",
									"MY.habitatEnumValue21",
									"MY.habitatEnumValue22",
									"MY.habitatEnumValue23",
									"MY.habitatEnumValue24",
									"MY.habitatEnumValue25",
									"MY.habitatEnumValue26",
									"MY.habitatEnumValue27",
									"MY.habitatEnumValue28",
									"MY.habitatEnumValue29",
									"MY.habitatEnumValue30",
									"MY.habitatEnumValue31",
									"MY.habitatEnumValue32",
									"MY.habitatEnumValue33",
									"MY.habitatEnumValue34",
									"MY.habitatEnumValue35",
									"MY.habitatEnumValue36",
									"MY.habitatEnumValue87",
									"MY.habitatEnumValue37",
									"MY.habitatEnumValue38",
									"MY.habitatEnumValue39",
									"MY.habitatEnumValue40",
									"MY.habitatEnumValue41",
									"MY.habitatEnumValue42",
									"MY.habitatEnumValue43",
									"MY.habitatEnumValue44",
									"MY.habitatEnumValue45",
									"MY.habitatEnumValue46",
									"MY.habitatEnumValue47",
									"MY.habitatEnumValue48",
									"MY.habitatEnumValue49",
									"MY.habitatEnumValue50",
									"MY.habitatEnumValue51",
									"MY.habitatEnumValue52",
									"MY.habitatEnumValue53",
									"MY.habitatEnumValue54",
									"MY.habitatEnumValue55",
									"MY.habitatEnumValue56",
									"MY.habitatEnumValue57",
									"MY.habitatEnumValue58",
									"MY.habitatEnumValue59",
									"MY.habitatEnumValue60",
									"MY.habitatEnumValue61",
									"MY.habitatEnumValue62",
									"MY.habitatEnumValue63",
									"MY.habitatEnumValue64",
									"MY.habitatEnumValue65",
									"MY.habitatEnumValue66",
									"MY.habitatEnumValue67",
									"MY.habitatEnumValue68",
									"MY.habitatEnumValue69",
									"MY.habitatEnumValue70",
									"MY.habitatEnumValue71",
									"MY.habitatEnumValue72",
									"MY.habitatEnumValue73",
									"MY.habitatEnumValue74",
									"MY.habitatEnumValue75",
									"MY.habitatEnumValue76",
									"MY.habitatEnumValue77",
									"MY.habitatEnumValue78",
									"MY.habitatEnumValue79",
									"MY.habitatEnumValue80",
									"MY.habitatEnumValue81",
									"MY.habitatEnumValue82",
									"MY.habitatEnumValue83",
									"MY.habitatEnumValue84",
									"MY.habitatEnumValue85",
									"MY.habitatEnumValue86"
								],
								"enumNames": [
									"",
									"Forest",
									"Heath forest",
									"Mesic heath forest",
									"Herb-rich heath forest",
									"Sub-xeric heath forest",
									"Xeric heath forest",
									"Herb-rich forest",
									"Dry herb-rich forest",
									"Mesic herb-rich forest",
									"Moist herb-rich forest",
									"Herb-rich forest with broadleaved deciduous trees",
									"Herb-rich mountain birch forests",
									"Mountain birch forest (excluding herb-rich mountain birch forest)",
									"Mire",
									"Open mire",
									"Rich fen",
									"Fen",
									"Open swamp",
									"Wooded mire",
									"Pine mire and bog",
									"Spruce mire",
									"Scrub swamp",
									"Swamp",
									"Water",
									"Spring complex",
									"Streams or a brook",
									"Shore",
									"Flooded forest",
									"Shore scrub",
									"Swamp shore",
									"Meadow shore",
									"Reedbred",
									"Gravel and shingle shores",
									"Sand beach",
									"Unvegetated flood shore",
									"Rock outcrop and scree",
									"Siliceous rock outcrops",
									"Lichen rock outcrop and scree",
									"Graminoid dwarf shrub rock outcrop and scree",
									"Rock outcrop and scree deficient of trees",
									"Forest on rocky terrain",
									"Calcareous rock outcrop and quarry, bare calcareous land",
									"Serpentine rock outcrop or land",
									"Rock meadow",
									"Fell area",
									"Mountain heath",
									"Mountain meadow",
									"Snowbed",
									"Mountain heath scrub",
									"Paljakan lähteikkö tai tihkupintaOroarctic/mountain spring complexes and habitats",
									"Paljakan kallio tai kivikkoOroarctic/ rocky outcrop and scree",
									"Oroarctic mountain mire",
									"Paljakan järvi tai lampi (sis. ranta)Oroarctic/mountain lake",
									"Paljakan virtavesi (sis. purot ja rannat)Oroarctic/mountain brookside or a stream",
									"Rock face",
									"Rural biotopes and cultural habitats or other human-impacted environment",
									"Rural biotopes and cultural habitats",
									"Dry meadow",
									"Heath",
									"Mesic meadow",
									"Wooded pasture and meadow",
									"Moist meadow (other than shore meadow)",
									"Fen meadow",
									"Rock meadow",
									"Ditch or other excavation",
									"Roadsides (verges, banks etc.)",
									"Agricultural land",
									"Field",
									"Lawn or grass",
									"Tree and bush plantation",
									"Abandoned field",
									"Park, courtyard or garden",
									"Park",
									"Manor garden",
									"Graveyard",
									"Courtyard",
									"Garden",
									"Open grass",
									"Scrub",
									"Secondary habitats",
									"Roadsides (verges, banks, on the road etc.)",
									"Dumpling area",
									"Fill-up soil",
									"Sand and gravel pit",
									"Peat production area",
									"Quarry and mine area",
									"Ruderate habitats and areas"
								]
							}
						},
						"habitatDescription": {
							"type": "string",
							"title": "Habitat description"
						},
						"weather": {
							"type": "string",
							"title": "Weather",
							"excludeFromCopy": true
						},
						"notes": {
							"type": "string",
							"title": "Notes"
						},
						"samplingMethod": {
							"type": "string",
							"title": "Sampling method",
							"enum": [
								"",
								"MY.samplingMethodLight",
								"MY.samplingMethodPitfall",
								"MY.samplingMethodNet",
								"MY.samplingMethodMalaise",
								"MY.samplingMethodSoilsample",
								"MY.samplingMethodSweeping",
								"MY.samplingMethodBait",
								"MY.samplingMethodBaittrap",
								"MY.samplingMethodFeromonetrap",
								"MY.samplingMethodWindowtrap",
								"MY.samplingMethodPantrap",
								"MY.samplingMethodYellowpan",
								"MY.samplingMethodYellowWindowTrap",
								"MY.samplingMethodYellowtrap",
								"MY.samplingMethodTrap",
								"MY.samplingMethodLightTrap",
								"MY.samplingMethodMistnet",
								"MY.samplingMethodHand",
								"MY.samplingMethodCarnet",
								"MY.samplingMethodDropping",
								"MY.samplingMethodExovo",
								"MY.samplingMethodElarva",
								"MY.samplingMethodEpupa",
								"MY.samplingMethodReared",
								"MY.samplingMethodEclectortrap",
								"MY.samplingMethodSifting",
								"MY.samplingMethodBoard",
								"MY.samplingMethodDrag",
								"MY.samplingMethodTriangleDrag",
								"MY.samplingMethodFishNet",
								"MY.samplingMethodElectrofishing",
								"MY.samplingMethodAngleFishing",
								"MY.samplingMethodFishTrap",
								"MY.samplingMethodSeine",
								"MY.samplingMethodTrawling",
								"MY.samplingMethodOther",
								"MY.samplingMethodDiving",
								"MY.samplingMethodBeamTrawl",
								"MY.samplingMethodDigging",
								"MY.samplingMethodWashing"
							],
							"enumNames": [
								"",
								"light (lux)",
								"pitfall",
								"net (haavi)",
								"Malaise",
								"soil sample",
								"sweeping",
								"bait (any kind, without trap)",
								"bait trap",
								"pheromone trap",
								"window trap",
								"pan trap",
								"yellowpan",
								"yellow-window trap",
								"yellowtrap",
								"trap (generic)",
								"light trap",
								"mistnet",
								"collecting by hand",
								"car net",
								"dropping (brushing or shaking)",
								"reared, ex ovo",
								"reared, e larva",
								"Reared, e pupa",
								"reared",
								"eclector (emergence) trap",
								"sifting (seulos)",
								"Board Shelter",
								"drag (hara)",
								"triangle drag (kolmiohara)",
								"fish net",
								"electrofishing",
								"angling (fishing with a hook)",
								"fish trap",
								"seine",
								"trawling (troolaus)",
								"other",
								"diving",
								"beam trawl",
								"digging",
								"washing"
							]
						},
						"samplingMethodNotes": {
							"type": "string",
							"title": "Sampling method notes"
						},
						"observationDays": {
							"type": "integer",
							"title": "Observation days"
						},
						"observationMinutes": {
							"type": "integer",
							"title": "Observation minutes"
						},
						"trapCount": {
							"type": "integer",
							"title": "Trap count"
						},
						"taxonCensus": {
							"type": "array",
							"title": "Completely recorded taxon",
							"items": {
								"type": "object",
								"properties": {
									"censusTaxonID": {
										"type": "string",
										"title": "Censused taxon"
									},
									"taxonCensusType": {
										"type": "string",
										"title": "Completeness of census",
										"enum": [
											"MY.taxonCensusTypeCounted",
											"MY.taxonCensusTypeEstimated",
											"MY.taxonCensusTypeNotCounted",
											"MY.taxonCensusTypeUHEXCounted",
											"MY.taxonCensusTypeUHEXNotCounted"
										],
										"enumNames": [
											"All species identified and counted",
											"All species identified, count estimated",
											"All species identified, count is not estimated",
											"Only endangered (UHEX) species counted",
											"Only endangered (UHEX) species identified, not counted"
										]
									}
								},
								"required": [
									"censusTaxonID",
									"taxonCensusType"
								]
							}
						},
						"units": {
							"type": "array",
							"title": "Observations",
							"excludeFromCopy": true,
							"items": {
								"type": "object",
								"properties": {
									"count": {
										"type": "string",
										"title": "Count"
									},
									"maleIndividualCount": {
										"type": "integer",
										"title": "Male individual count"
									},
									"femaleIndividualCount": {
										"type": "integer",
										"title": "Female individual count"
									},
									"sex": {
										"type": "string",
										"title": "Sex",
										"enum": [
											"",
											"MY.sexM",
											"MY.sexF",
											"MY.sexW",
											"MY.sexU",
											"MY.sexN",
											"MY.sexX",
											"MY.sexE",
											"MY.sexC"
										],
										"enumNames": [
											"",
											"M - Male",
											"F - Female",
											"W - Worker",
											"U - Unknown",
											"N - Not applicable",
											"X - Gynandromorph",
											"E - multiple",
											"C - Conflicting"
										]
									},
									"notes": {
										"type": "string",
										"title": "Notes"
									},
									"taxonConfidence": {
										"type": "string",
										"title": "Confidence of determination",
										"default": "MY.taxonConfidenceSure",
										"enum": [
											"",
											"MY.taxonConfidenceSure",
											"MY.taxonConfidenceUnsure",
											"MY.taxonConfidenceSubspeciesUnsure"
										],
										"enumNames": [
											"",
											"sure",
											"unsure",
											"subspecies unsure"
										]
									},
									"recordBasis": {
										"type": "string",
										"title": "Record type",
										"default": "MY.recordBasisHumanObservation",
										"enum": [
											"",
											"MY.recordBasisPreservedSpecimen",
											"MY.recordBasisHumanObservation",
											"MY.recordBasisHumanObservationPhoto",
											"MY.recordBasisHumanObservationIndirect",
											"MY.recordBasisHumanObservationHandled",
											"MY.recordBasisHumanObservationAudio"
										],
										"enumNames": [
											"",
											"Preserved specimen",
											"Observation",
											"Photographed",
											"Indirect observation (footprints, feces, etc)",
											"Handled (catched, not preserved)",
											"Audio recording"
										]
									},
									"samplingMethod": {
										"type": "string",
										"title": "Sampling method",
										"enum": [
											"",
											"MY.samplingMethodLight",
											"MY.samplingMethodPitfall",
											"MY.samplingMethodNet",
											"MY.samplingMethodMalaise",
											"MY.samplingMethodSoilsample",
											"MY.samplingMethodSweeping",
											"MY.samplingMethodBait",
											"MY.samplingMethodBaittrap",
											"MY.samplingMethodFeromonetrap",
											"MY.samplingMethodWindowtrap",
											"MY.samplingMethodPantrap",
											"MY.samplingMethodYellowpan",
											"MY.samplingMethodYellowWindowTrap",
											"MY.samplingMethodYellowtrap",
											"MY.samplingMethodTrap",
											"MY.samplingMethodLightTrap",
											"MY.samplingMethodMistnet",
											"MY.samplingMethodHand",
											"MY.samplingMethodCarnet",
											"MY.samplingMethodDropping",
											"MY.samplingMethodExovo",
											"MY.samplingMethodElarva",
											"MY.samplingMethodEpupa",
											"MY.samplingMethodReared",
											"MY.samplingMethodEclectortrap",
											"MY.samplingMethodSifting",
											"MY.samplingMethodBoard",
											"MY.samplingMethodDrag",
											"MY.samplingMethodTriangleDrag",
											"MY.samplingMethodFishNet",
											"MY.samplingMethodElectrofishing",
											"MY.samplingMethodAngleFishing",
											"MY.samplingMethodFishTrap",
											"MY.samplingMethodSeine",
											"MY.samplingMethodTrawling",
											"MY.samplingMethodOther",
											"MY.samplingMethodDiving",
											"MY.samplingMethodBeamTrawl",
											"MY.samplingMethodDigging",
											"MY.samplingMethodWashing"
										],
										"enumNames": [
											"",
											"light (lux)",
											"pitfall",
											"net (haavi)",
											"Malaise",
											"soil sample",
											"sweeping",
											"bait (any kind, without trap)",
											"bait trap",
											"pheromone trap",
											"window trap",
											"pan trap",
											"yellowpan",
											"yellow-window trap",
											"yellowtrap",
											"trap (generic)",
											"light trap",
											"mistnet",
											"collecting by hand",
											"car net",
											"dropping (brushing or shaking)",
											"reared, ex ovo",
											"reared, e larva",
											"Reared, e pupa",
											"reared",
											"eclector (emergence) trap",
											"sifting (seulos)",
											"Board Shelter",
											"drag (hara)",
											"triangle drag (kolmiohara)",
											"fish net",
											"electrofishing",
											"angling (fishing with a hook)",
											"fish trap",
											"seine",
											"trawling (troolaus)",
											"other",
											"diving",
											"beam trawl",
											"digging",
											"washing"
										]
									},
									"preservation": {
										"type": "string",
										"title": "Preservation",
										"enum": [
											"",
											"MY.preservationPinned",
											"MY.preservationGlued",
											"MY.preservationEthanol",
											"MY.preservationEthanolPure",
											"MY.preservationEthanol96",
											"MY.preservationEthanol80",
											"MY.preservationEthanol80Pure",
											"MY.preservationEthanol70",
											"MY.preservationEthanolDenatured",
											"MY.preservationFormalin",
											"MY.preservationEthanolFormalin",
											"MY.preservationGlycerol",
											"MY.preservationLiquid",
											"MY.preservationEulan",
											"MY.preservationSlide",
											"MY.preservationSlideEuparal",
											"MY.preservationSlidePolyviol",
											"MY.preservationSlideCanadaBalsam",
											"MY.preservationCriticalPointDrying",
											"MY.preservationGoldPlated",
											"MY.preservationFreezeDried",
											"MY.preservationFrozen",
											"MY.preservationDry",
											"MY.preservationStuffed",
											"MY.preservationParaffin",
											"MY.preservationPressed",
											"MY.preservationLiving",
											"MY.preservationCast",
											"MY.preservationEthanolExFormalin",
											"MY.preservationMercuricChloride",
											"MY.preservationBouinSolution",
											"MY.preservationPampelsFluid"
										],
										"enumNames": [
											"",
											"pinned",
											"glued",
											"ethanol (unknown %)",
											"ethanol (unknown %) pure",
											"ethanol 96 %",
											"ethanol 80 %",
											"ethanol 80 % pure",
											"ethanol 70 %",
											"ethanol denatured",
											"formalin",
											"ethanol and formalin",
											"glycerol",
											"liquid sample",
											"Eulan",
											"slide",
											"slide euparal",
											"slide polyviol",
											"slide Canada balsam",
											"critical-point drying",
											"gold-plated",
											"freeze-dried",
											"frozen",
											"dry",
											"stuffed",
											"paraffin",
											"dry and pressed",
											"living",
											"cast",
											"ethanol ex formalin",
											"mercuric chloride",
											"Bouin's solution",
											"Pampel's fluid"
										]
									},
									"nativeStatus": {
										"type": "string",
										"title": "Native status",
										"enum": [
											"",
											"MY.native",
											"MY.nonNative"
										],
										"enumNames": [
											"",
											"native",
											"non-native"
										]
									},
									"breeding": {
										"type": "boolean",
										"title": "Breeding"
									},
									"hostID": {
										"type": "string",
										"title": "Host species identifier"
									},
									"checklistID": {
										"type": "string",
										"title": "Checklist",
										"default": "",
										"enum": [
											"",
											"MR.1"
										],
										"enumNames": [
											"",
											"FinBIF master checklist"
										]
									},
									"atlasCode": {
										"type": "string",
										"title": "Breeding category",
										"enum": [
											"",
											"MY.atlasCodeEnum1",
											"MY.atlasCodeEnum2",
											"MY.atlasCodeEnum3",
											"MY.atlasCodeEnum4",
											"MY.atlasCodeEnum5",
											"MY.atlasCodeEnum6",
											"MY.atlasCodeEnum7",
											"MY.atlasCodeEnum8",
											"MY.atlasCodeEnum61",
											"MY.atlasCodeEnum62",
											"MY.atlasCodeEnum63",
											"MY.atlasCodeEnum64",
											"MY.atlasCodeEnum65",
											"MY.atlasCodeEnum66",
											"MY.atlasCodeEnum71",
											"MY.atlasCodeEnum72",
											"MY.atlasCodeEnum73",
											"MY.atlasCodeEnum74",
											"MY.atlasCodeEnum75",
											"MY.atlasCodeEnum81",
											"MY.atlasCodeEnum82"
										],
										"enumNames": [
											"",
											"1 Breeding unlikely; Species detected in the grid during the breeding season, but almost certainly does not breed there",
											"2 Possible breeding; A solitary bird detected once in suitable breeding habitat, and breeding of the species in the grid is possible",
											"3 Possible breeding; A pair detected once in a suitable breeding habitat, and breeding of the species in the grid is possible",
											"4 Probable breeding; A singing or a displaying male observed at the same site in different days",
											"5 Probable breeding; A female or a pair observed at the same site in different days",
											"6 Probable breeding; A bird or a pair observed",
											"7 Confirmed breeding; Indirect evidence of verified breeding detected",
											"8 Confirmed breeding; Direct evidence of verified breeding detected",
											"61 Probable breeding; A bird or a pair observed visiting frequently at the probable nest",
											"62 Probable breeding; A bird or a pair observed building a nest",
											"63 Probable breeding; A bird or a pair observed giving alarm calls because of proximity to nest or brood",
											"64 Probable breeding; A bird or a pair observed displaying broken wing -act",
											"65 Probable breeding; A bird or a pair observed attacking the observer",
											"66 Probable breeding; Nest found with fresh nest material or remains of food; no direct evidence of eggs or young found.",
											"71 Confirmed breeding; Indirect evidence of verified breeding detected: nest found with signs indicating that is has been used in the same year",
											"72 Confirmed breeding; Indirect evidence of verified breeding detected: a bird seen entering or coming out from the nest in a way that suggests breeding",
											"73 Confirmed breeding; Indirect evidence of verified breeding detected: fledglings or young detected so that they can be assumed to have hatched within the grid",
											"74 Confirmed breeding; Indirect evidence of verified breeding detected: a parent carrying food to nestlings or faeces of nestlings away from the nest",
											"75 Confirmed breeding; Indirect evidence of verified breeding detected: an incubating bird seen in the nest",
											"81 Confirmed breeding; Direct evidence of a verified breeding detected: begging or other calls of nestlings heard from the nest",
											"82 Confirmed breeding; Direct evidence of a verified breeding detected: a nest found with eggs or nestlings"
										]
									},
									"movingStatus": {
										"type": "string",
										"title": "Moving status"
									},
									"twitched": {
										"type": "boolean",
										"title": "Twitched"
									},
									"plantLifeStage": {
										"type": "string",
										"title": "Plant life stage",
										"enum": [
											"",
											"MY.plantLifeStageSterile",
											"MY.plantLifeStageFertile",
											"MY.plantLifeStageSeed",
											"MY.plantLifeStageSprout",
											"MY.plantLifeStageBud",
											"MY.plantLifeStageFlower",
											"MY.plantLifeStageWitheredFlower",
											"MY.plantLifeStageRipeningFruit",
											"MY.plantLifeStageRipeFruit",
											"MY.plantLifeStageDeadSprout",
											"MY.plantLifeStageSubterranean",
											"MY.plantLifeStageLivingPlant",
											"MY.plantLifeStageDeadPlant"
										],
										"enumNames": [
											"",
											"sterile",
											"fertile",
											"seed / spore / fruit",
											"sprout",
											"bud",
											"flower",
											"withered flower",
											"ripening seed / fruit / spore",
											"ripe seed / fruit / spore",
											"dead sprout",
											"subterranean",
											"living plant",
											"dead plant"
										]
									},
									"plantStatusCode": {
										"type": "string",
										"title": "Plant status",
										"enum": [
											"",
											"MY.MY.plantStatusCodeL",
											"MY.plantStatusCodeA",
											"MY.plantStatusCodeAV",
											"MY.plantStatusCodeAOV",
											"MY.plantStatusCodeAN",
											"MY.plantStatusCodeANV",
											"MY.plantStatusCodeANS",
											"MY.plantStatusCodeT",
											"MY.plantStatusCodeTV",
											"MY.plantStatusCodeTOV",
											"MY.plantStatusCodeTNV",
											"MY.plantStatusCodeTNS",
											"MY.plantStatusCodeV",
											"MY.plantStatusCodeOV",
											"MY.plantStatusCodeN",
											"MY.plantStatusCodeNV",
											"MY.plantStatusCodeNS",
											"MY.plantStatusCodeE",
											"MY.plantStatusCodeTE",
											"MY.plantStatusCodeTVE",
											"MY.plantStatusCodeTOVE",
											"MY.plantStatusCodeTNVE",
											"MY.plantStatusCodeTNSE",
											"MY.plantStatusCodeTN",
											"MY.plantStatusCodeTNE",
											"MY.plantStatusCodeR",
											"MY.plantStatusCodeC",
											"MY.plantStatusCodeH",
											"MY.plantStatusCodeG",
											"MY.plantStatusCodeF"
										],
										"enumNames": [
											"",
											"L",
											"A",
											"AV",
											"AOV - spontaneous, old, resident",
											"AN - spontaneuous, new",
											"ANV - spontaneous, new, resident",
											"ANS - spontaneous, new, ephemeral",
											"T - alien",
											"TV - alien, resident",
											"TOV - alien, old, resident (archaeotype)",
											"TNV - alien, new, resident",
											"TNS - alien, new, ephemeral",
											"V - resident",
											"OV - old, resident",
											"N - new",
											"NV - new, resident",
											"NS - new, ephemeral",
											"E - spreading in the wild, cultivated origin",
											"TE - alien, spreading in the wild, cultivated origin",
											"TVE - alien, resident, spreading in the wild, cultivated origin",
											"TOVE - alien, old, resident (archaeotype), cultivated origin",
											"TNVE - alien, new, resident, cultivated origin",
											"TNSE - alien, new, ephemeral, cultivated origin",
											"TN - alien, new",
											"TNE - alien, new, cultivated origin",
											"R - relict of cultivation",
											"C - only as cultivated",
											"H - short distance escape from cultivation (inside a garden or similar)",
											"G - greenhouse plant",
											"F - subfossil, fossil"
										]
									},
									"lifeStage": {
										"type": "string",
										"title": "Life stage",
										"enum": [
											"",
											"MY.lifeStageEgg",
											"MY.lifeStageLarva",
											"MY.lifeStagePupa",
											"MY.lifeStageJuvenile",
											"MY.lifeStageNymph",
											"MY.lifeStageSubimago",
											"MY.lifeStageImmature",
											"MY.lifeStageAdult",
											"MY.lifeStageFertile",
											"MY.lifeStageSterile",
											"MY.lifeStageTadpole",
											"MY.lifeStageDead",
											"MY.lifeStageAlive",
											"MY.lifeStageEmbryo",
											"MY.lifeStageSubadult",
											"MY.lifeStageMature",
											"MY.lifeStagePullus"
										],
										"enumNames": [
											"",
											"egg",
											"larva",
											"pupa",
											"juvenile",
											"nymph",
											"subimago",
											"immature",
											"adult",
											"fertile",
											"sterile",
											"tadpole",
											"dead",
											"alive",
											"embryo or fetus",
											"subadult",
											"mature",
											"pullus"
										]
									},
									"hostInformalNameString": {
										"type": "string",
										"title": "Host species"
									},
									"substrateSpecies": {
										"type": "string",
										"title": "Substrate species"
									},
									"smell": {
										"type": "string",
										"title": "Smell",
										"enum": [
											"",
											"MY.smellNotSmelled",
											"MY.smellNoSmelled",
											"MY.smellWeak",
											"MY.smellModerate",
											"MY.smellStrong"
										],
										"enumNames": [
											"",
											"Not sniffed",
											"Smell none",
											"Faint",
											"Distinct",
											"Strong"
										]
									},
									"smellNotes": {
										"type": "string",
										"title": "Smell notes"
									},
									"taste": {
										"type": "string",
										"title": "Taste",
										"enum": [
											"",
											"MY.tasteNotTasted",
											"MY.tasteNoTaste",
											"MY.tasteWeak",
											"MY.tasteModerate",
											"MY.tasteStrong"
										],
										"enumNames": [
											"",
											"Not tasted",
											"Taste none",
											"Faint",
											"Distinct",
											"Strong"
										]
									},
									"tasteNotes": {
										"type": "string",
										"title": "Taste notes"
									},
									"informalTaxonGroups": {
										"type": "array",
										"title": "Informal taxon groups",
										"items": {
											"type": "string"
										}
									},
									"images": {
										"type": "array",
										"title": "Images",
										"items": {
											"type": "string"
										}
									},
									"identifications": {
										"type": "array",
										"items": {
											"type": "object",
											"properties": {
												"taxon": {
													"type": "string",
													"title": "Species"
												},
												"det": {
													"type": "string",
													"title": "Det."
												},
												"detDate": {
													"type": "string",
													"title": "Det date"
												},
												"identificationBasis": {
													"type": "array",
													"title": "Identification basis",
													"uniqueItems": true,
													"items": {
														"type": "string",
														"enum": [
															"",
															"MY.identificationBasisSeen",
															"MY.identificationBasisHeard",
															"MY.identificationBasisHandled",
															"MY.identificationBasisMedia",
															"MY.identificationBasisFreshSpecimen",
															"MY.identificationBasisPreservedSpecimen",
															"MY.identificationBasisMicroscope",
															"MY.identificationBasisSpores",
															"MY.identificationBasisChemical",
															"MY.identificationBasisGenitals",
															"MY.identificationBasisGenitalPreparate",
															"MY.identificationBasisDNA"
														],
														"enumNames": [
															"",
															"Seen",
															"Heard",
															"Handled",
															"Media",
															"Fresh material",
															"Preserved / dried material",
															"Microscopy",
															"Spores",
															"Chemical",
															"Genitals",
															"GenitalPreparate",
															"DNA"
														]
													}
												}
											},
											"required": []
										},
										"minItems": 1
									},
									"unitGathering": {
										"type": "object",
										"properties": {
											"geometry": {
												"type": "object",
												"properties": {},
												"title": "Coordinates"
											},
											"dateBegin": {
												"type": "string",
												"title": "Start date"
											},
											"dateEnd": {
												"type": "string",
												"title": "End date"
											},
											"habitatIUCN": {
												"type": "string",
												"title": "Habitat"
											},
											"habitatDescription": {
												"type": "string",
												"title": "Habitat description"
											},
											"substrate": {
												"type": "string",
												"title": "Substrate notes"
											}
										},
										"required": []
									},
									"unitFact": {
										"type": "object",
										"properties": {
											"autocompleteSelectedTaxonID": {
												"type": "string",
												"title": "MY.autocompleteSelectedTaxonID"
											}
										},
										"required": []
									}
								},
								"required": []
							},
							"minItems": 1
						}
					},
					"required": []
				}
			}
		},
		"required": []
	},
	"validators": {
		"gatheringEvent": {
			"properties": {
				"leg": {
					"presence": {
						"message": "At least one observer must be reported."
					}
				},
				"dateBegin": {
					"datetime": {
						"latest": "now",
						"message": "Date can't be in the future"
					},
					"crossCheck": {
						"check": "dateEnd",
						"message": "The begin is required when the end is given."
					},
					"presence": {
						"message": "Date is required"
					},
					"compareDate": {
						"hasTimeIfOtherHas": "dateEnd",
						"message": "The time of the date begin must be given if date end has time."
					}
				},
				"dateEnd": {
					"datetime": {
						"latest": "now",
						"message": "Date can't be in the future"
					},
					"compareDate": {
						"isAfter": "dateBegin",
						"message": "The begin of the time span %{value} must be before it's end %{key}"
					}
				}
			},
			"presence": {
				"allowEmpty": false
			}
		},
		"gatherings": {
			"items": {
				"properties": {
					"dateBegin": {
						"datetime": {
							"latest": "now",
							"message": "Date can't be in the future"
						},
						"crossCheck": {
							"check": "dateEnd",
							"message": "The begin is required when the end is given."
						}
					},
					"dateEnd": {
						"datetime": {
							"latest": "now",
							"message": "Date can't be in the future"
						},
						"compareDate": {
							"isAfter": "dateBegin",
							"message": "The begin of the time span %{value} must be before it's end %{key}"
						}
					},
					"geometry": {
						"geometry": {
							"requireShape": true,
							"maximumSize": 10,
							"includeGatheringUnits": true,
							"message": {
								"missingGeometries": "Gathering must have at least one feature.",
								"invalidBoundingBoxHectares": "Too big area. Maximum is %{max} hectares",
								"notGeometry": "Gathering must have at least one feature.",
								"missingType": "Gathering must have at least one feature.",
								"invalidRadius": "Gathering must have at least one feature.",
								"invalidCoordinates": "Gathering must have at least one feature.",
								"invalidGeometries": "Gathering must have at least one feature.",
								"noOverlap": "Gathering must have at least one feature."
							},
							"boundingBoxMaxHectares": 1000000
						}
					},
					"units": {
						"items": {
							"properties": {
								"identifications": {
									"presence": {
										"message": "@taxonValidation"
									}
								},
								"unitGathering": {
									"properties": {
										"dateBegin": {
											"datetime": {
												"latest": "now",
												"message": "Date can't be in the future"
											},
											"crossCheck": {
												"check": "dateEnd",
												"message": "The begin is required when the end is given."
											}
										},
										"dateEnd": {
											"datetime": {
												"latest": "now",
												"message": "Date can't be in the future"
											},
											"compareDate": {
												"isAfter": "dateBegin",
												"message": "The begin of the time span %{value} must be before it's end %{key}"
											}
										}
									}
								}
							}
						}
					}
				}
			},
			"presence": {
				"message": "At least one location must be reported.",
				"allowEmpty": false
			}
		}
	},
	"warnings": {
		"gatherings": {
			"items": {
				"properties": {
					"units": {
						"presence": {
							"message": "At least one observation must be reported.",
							"allowEmpty": false
						}
					}
				}
			}
		}
	},
	"excludeFromCopy": [
		"dateBegin",
		"dateEnd",
		"images",
		"weather",
		"units"
	],
	"uiSchemaContext": {
		"habitat": {
			"tree": {
				"children": {
					"MY.habitatEnumValue1": {
						"children": {
							"MY.habitatEnumValue2": {
								"children": {
									"MY.habitatEnumValue3": {},
									"MY.habitatEnumValue4": {},
									"MY.habitatEnumValue5": {},
									"MY.habitatEnumValue6": {}
								},
								"order": [
									"MY.habitatEnumValue3",
									"MY.habitatEnumValue4",
									"MY.habitatEnumValue5",
									"MY.habitatEnumValue6"
								]
							},
							"MY.habitatEnumValue7": {
								"children": {
									"MY.habitatEnumValue8": {},
									"MY.habitatEnumValue9": {},
									"MY.habitatEnumValue10": {},
									"MY.habitatEnumValue11": {},
									"MY.habitatEnumValue12": {}
								},
								"order": [
									"MY.habitatEnumValue8",
									"MY.habitatEnumValue9",
									"MY.habitatEnumValue10",
									"MY.habitatEnumValue11",
									"MY.habitatEnumValue12"
								]
							},
							"MY.habitatEnumValue13": {}
						},
						"order": [
							"MY.habitatEnumValue2",
							"MY.habitatEnumValue7",
							"MY.habitatEnumValue13"
						]
					},
					"MY.habitatEnumValue14": {
						"children": {
							"MY.habitatEnumValue15": {
								"children": {
									"MY.habitatEnumValue16": {},
									"MY.habitatEnumValue17": {},
									"MY.habitatEnumValue18": {}
								},
								"order": [
									"MY.habitatEnumValue16",
									"MY.habitatEnumValue17",
									"MY.habitatEnumValue18"
								]
							},
							"MY.habitatEnumValue19": {
								"children": {
									"MY.habitatEnumValue20": {},
									"MY.habitatEnumValue21": {},
									"MY.habitatEnumValue22": {},
									"MY.habitatEnumValue23": {}
								},
								"order": [
									"MY.habitatEnumValue20",
									"MY.habitatEnumValue21",
									"MY.habitatEnumValue22",
									"MY.habitatEnumValue23"
								]
							}
						},
						"order": [
							"MY.habitatEnumValue15",
							"MY.habitatEnumValue19"
						]
					},
					"MY.habitatEnumValue24": {
						"children": {
							"MY.habitatEnumValue25": {},
							"MY.habitatEnumValue26": {}
						},
						"order": [
							"MY.habitatEnumValue25",
							"MY.habitatEnumValue26"
						]
					},
					"MY.habitatEnumValue27": {
						"children": {
							"MY.habitatEnumValue28": {},
							"MY.habitatEnumValue29": {},
							"MY.habitatEnumValue30": {},
							"MY.habitatEnumValue31": {},
							"MY.habitatEnumValue32": {},
							"MY.habitatEnumValue33": {},
							"MY.habitatEnumValue34": {},
							"MY.habitatEnumValue35": {}
						},
						"order": [
							"MY.habitatEnumValue28",
							"MY.habitatEnumValue29",
							"MY.habitatEnumValue30",
							"MY.habitatEnumValue31",
							"MY.habitatEnumValue32",
							"MY.habitatEnumValue33",
							"MY.habitatEnumValue34",
							"MY.habitatEnumValue35"
						]
					},
					"MY.habitatEnumValue36": {
						"children": {
							"MY.habitatEnumValue87": {
								"children": {
									"MY.habitatEnumValue37": {},
									"MY.habitatEnumValue38": {},
									"MY.habitatEnumValue39": {},
									"MY.habitatEnumValue40": {}
								},
								"order": [
									"MY.habitatEnumValue37",
									"MY.habitatEnumValue38",
									"MY.habitatEnumValue39",
									"MY.habitatEnumValue40"
								]
							},
							"MY.habitatEnumValue41": {},
							"MY.habitatEnumValue42": {},
							"MY.habitatEnumValue43": {}
						},
						"order": [
							"MY.habitatEnumValue87",
							"MY.habitatEnumValue41",
							"MY.habitatEnumValue42",
							"MY.habitatEnumValue43"
						]
					},
					"MY.habitatEnumValue44": {
						"children": {
							"MY.habitatEnumValue45": {},
							"MY.habitatEnumValue46": {},
							"MY.habitatEnumValue47": {},
							"MY.habitatEnumValue48": {},
							"MY.habitatEnumValue49": {},
							"MY.habitatEnumValue50": {},
							"MY.habitatEnumValue51": {},
							"MY.habitatEnumValue52": {},
							"MY.habitatEnumValue53": {},
							"MY.habitatEnumValue54": {}
						},
						"order": [
							"MY.habitatEnumValue45",
							"MY.habitatEnumValue46",
							"MY.habitatEnumValue47",
							"MY.habitatEnumValue48",
							"MY.habitatEnumValue49",
							"MY.habitatEnumValue50",
							"MY.habitatEnumValue51",
							"MY.habitatEnumValue52",
							"MY.habitatEnumValue53",
							"MY.habitatEnumValue54"
						]
					},
					"MY.habitatEnumValue55": {
						"children": {
							"MY.habitatEnumValue56": {
								"children": {
									"MY.habitatEnumValue57": {},
									"MY.habitatEnumValue58": {},
									"MY.habitatEnumValue59": {},
									"MY.habitatEnumValue60": {},
									"MY.habitatEnumValue61": {},
									"MY.habitatEnumValue62": {},
									"MY.habitatEnumValue63": {}
								},
								"order": [
									"MY.habitatEnumValue57",
									"MY.habitatEnumValue58",
									"MY.habitatEnumValue59",
									"MY.habitatEnumValue60",
									"MY.habitatEnumValue61",
									"MY.habitatEnumValue62",
									"MY.habitatEnumValue63"
								]
							},
							"MY.habitatEnumValue64": {},
							"MY.habitatEnumValue65": {},
							"MY.habitatEnumValue66": {
								"children": {
									"MY.habitatEnumValue67": {},
									"MY.habitatEnumValue68": {},
									"MY.habitatEnumValue69": {},
									"MY.habitatEnumValue70": {}
								},
								"order": [
									"MY.habitatEnumValue67",
									"MY.habitatEnumValue68",
									"MY.habitatEnumValue69",
									"MY.habitatEnumValue70"
								]
							},
							"MY.habitatEnumValue71": {
								"children": {
									"MY.habitatEnumValue72": {},
									"MY.habitatEnumValue73": {},
									"MY.habitatEnumValue74": {},
									"MY.habitatEnumValue75": {},
									"MY.habitatEnumValue76": {},
									"MY.habitatEnumValue77": {},
									"MY.habitatEnumValue78": {}
								},
								"order": [
									"MY.habitatEnumValue72",
									"MY.habitatEnumValue73",
									"MY.habitatEnumValue74",
									"MY.habitatEnumValue75",
									"MY.habitatEnumValue76",
									"MY.habitatEnumValue77",
									"MY.habitatEnumValue78"
								]
							},
							"MY.habitatEnumValue79": {
								"children": {
									"MY.habitatEnumValue80": {},
									"MY.habitatEnumValue81": {},
									"MY.habitatEnumValue82": {},
									"MY.habitatEnumValue83": {},
									"MY.habitatEnumValue84": {},
									"MY.habitatEnumValue85": {},
									"MY.habitatEnumValue86": {}
								},
								"order": [
									"MY.habitatEnumValue80",
									"MY.habitatEnumValue81",
									"MY.habitatEnumValue82",
									"MY.habitatEnumValue83",
									"MY.habitatEnumValue84",
									"MY.habitatEnumValue85",
									"MY.habitatEnumValue86"
								]
							}
						},
						"order": [
							"MY.habitatEnumValue56",
							"MY.habitatEnumValue64",
							"MY.habitatEnumValue65",
							"MY.habitatEnumValue66",
							"MY.habitatEnumValue71",
							"MY.habitatEnumValue79"
						]
					}
				},
				"order": [
					"MY.habitatEnumValue1",
					"MY.habitatEnumValue14",
					"MY.habitatEnumValue24",
					"MY.habitatEnumValue27",
					"MY.habitatEnumValue36",
					"MY.habitatEnumValue44",
					"MY.habitatEnumValue55"
				]
			}
		}
	},
	"formData": {
  "gatheringEvent": {
    "legPublic": true,
    "leg": [
      "MA.308"
    ]
  },
  "editors": [
    "MA.308"
  ],
  "secureLevel": "MX.secureLevelNone",
  "keywords": [],
  "gatherings": [
    {
      "geometry": {
        "type": "GeometryCollection",
        "geometries": [
          {
            "type": "Point",
            "coordinates": [
              24.110223,
              49.458848
            ]
          }
        ]
      },
      "country": "Ukraine",
      "administrativeProvince": "Lviv Oblast",
      "biologicalProvince": "",
      "municipality": "Mykolaivs'kyi district",
      "images": [],
      "habitat": [],
      "taxonCensus": [],
      "units": [
        {
          "taxonConfidence": "MY.taxonConfidenceSure",
          "recordBasis": "MY.recordBasisHumanObservation",
          "checklistID": "",
          "informalTaxonGroups": [],
          "images": [],
          "identifications": [
            {
              "identificationBasis": []
            }
          ],
          "unitGathering": {
            "geometry": {}
          },
          "unitFact": {}
        }
      ],
      "eventTime": {}
    }
  ]
}
}
